{
    "relationships": [],
    "fields": [
        {
            "fieldId": 1,
            "fieldName": "name",
            "fieldType": "String",
            "fieldValidateRules": [
                "required",
                "minlength",
                "maxlength"
            ],
            "fieldValidateRulesMinlength": "2",
            "fieldValidateRulesMaxlength": "30"
        }
    ],
    "changelogDate": "20160106143536",
    "dto": "no",
    "service": "no",
    "pagination": "pager"
}